Ideal Geometry
Layer, Fibre,Ax + B
Dieter Notz (16.06.2008)
xxxxxxxxxxxxxxxxxxxxxxxxxxxxxxxxxxxxxxxxxx
20
1   1   -0.99969   -104.101   241528
1   2   -0.99907   -104.799   241528
1   3   -0.998969   -105.504   241528
1   4   -0.998884   -106.215   241528
1   5   -0.999194   -106.933   241528
1   6   -0.99901   -107.634   241528
1   7   -0.998792   -108.336   241528
1   8   -0.999076   -109.048   241528
1   9   -0.9991   -109.753   241528
1   10   -0.999176   -110.461   241528
1   11   -0.999504   -111.173   241528
1   12   -0.999403   -111.874   241528
1   13   -0.999274   -112.586   241528
1   14   -0.999957   -113.306   241528
1   15   -1.00027   -114.009   241528
1   16   -0.999764   -114.713   241528
1   17   -1.00025   -115.426   241528
1   18   -1.00045   -116.133   241528
1   19   -0.999904   -116.835   241528
1   20   -1.00035   -117.549   241528
1   21   -1.00062   -118.253   241528
1   22   -1.00027   -118.949   241528
1   23   -1.00053   -119.663   241528
1   24   -1.00074   -120.36   241528
1   25   -1.00065   -121.059   241528
1   26   -1.0012   -121.78   241528
1   27   -1.00152   -122.486   241528
1   28   -1.00061   -123.187   241528
1   29   -1.00088   -123.908   241528
1   30   -1.00181   -124.613   241528
1   31   -1.00108   -125.32   241528
1   32   -1.00113   -126.044   241528
1   33   -1.00183   -126.75   241528
1   34   -1.00149   -127.448   241528
1   35   -1.0014   -128.161   241528
1   36   -1.0021   -128.867   241528
1   37   -1.00209   -129.575   241528
1   38   -1.00215   -130.298   241528
1   39   -1.00288   -131.005   241528
1   40   -1.00248   -131.708   241528
1   41   -1.00235   -132.426   241528
1   42   -1.0033   -133.132   241528
1   43   -1.00328   -133.828   241528
1   44   -1.00285   -134.535   241528
1   45   -1.00348   -135.249   241528
1   46   -1.00368   -135.962   241528
1   47   -1.00328   -136.677   241528
1   48   -1.00415   -137.392   241528
1   49   -1.00449   -138.104   241528
1   50   -1.00464   -138.832   241528
1   51   -1.006   -139.557   241528
1   52   -1.00561   -140.257   241528
1   53   -1.00539   -140.974   241528
1   54   -1.0072   -141.697   241528
1   55   -1.00712   -142.396   241528
1   56   -1.00642   -143.111   241528
1   57   -1.00769   -143.835   241528
1   58   -1.00789   -144.547   241528
1   59   -1.00716   -145.26   241528
1   60   -1.00872   -145.981   241528
1   61   -1.00966   -146.7   241528
1   62   -1.00957   -147.426   241528
1   63   -1.01097   -148.156   241528
1   64   -1.00938   -148.826   241528
2   1   1.00985   -148.892   241530
2   2   1.00968   -148.184   241530
2   3   1.00727   -147.441   241530
2   4   1.00757   -146.721   241530
2   5   1.00663   -146.008   241530
2   6   1.00558   -145.298   241530
2   7   1.0068   -144.591   241530
2   8   1.00667   -143.885   241530
2   9   1.00497   -143.155   241530
2   10   1.00525   -142.43   241530
2   11   1.00559   -141.738   241530
2   12   1.00418   -141.021   241530
2   13   1.00449   -140.295   241530
2   14   1.0054   -139.596   241530
2   15   1.00359   -138.87   241530
2   16   1.00329   -138.145   241530
2   17   1.00453   -137.455   241530
2   18   1.00351   -136.743   241530
2   19   1.00338   -136.021   241530
2   20   1.00363   -135.316   241530
2   21   1.00273   -134.602   241530
2   22   1.00286   -133.883   241530
2   23   1.00298   -133.185   241530
2   24   1.00205   -132.48   241530
2   25   1.00208   -131.76   241530
2   26   1.00285   -131.058   241530
2   27   1.00164   -130.349   241530
2   28   1.00132   -129.635   241530
2   29   1.00303   -128.937   241530
2   30   1.00259   -128.222   241530
2   31   1.00172   -127.496   241530
2   32   1.00174   -126.784   241530
2   33   1.00126   -126.081   241530
2   34   1.00112   -125.372   241530
2   35   1.00125   -124.658   241530
2   36   1.00103   -123.943   241530
2   37   1.00102   -123.232   241530
2   38   1.00147   -122.53   241530
2   39   1.0011   -121.824   241530
2   40   1.00075   -121.109   241530
2   41   1.0013   -120.396   241530
2   42   1.00121   -119.69   241530
2   43   1.0011   -118.986   241530
2   44   1.00132   -118.284   241530
2   45   1.00072   -117.577   241530
2   46   1.00052   -116.857   241530
2   47   1.00122   -116.142   241530
2   48   1.00122   -115.441   241530
2   49   1.00082   -114.735   241530
2   50   1.00069   -114.022   241530
2   51   1.00053   -113.314   241530
2   52   1.00048   -112.605   241530
2   53   1.0005   -111.896   241530
2   54   1.0005   -111.194   241530
2   55   1.00045   -110.485   241530
2   56   1.00035   -109.777   241530
2   57   1.0003   -109.075   241530
2   58   1.00021   -108.361   241530
2   59   1.00026   -107.649   241530
2   60   1.00038   -106.943   241530
2   61   1.0003   -106.231   241530
2   62   1.00014   -105.526   241530
2   63   1.00009   -104.827   241530
2   64   1.00044   -104.136   241530
3   1   -1.0006   -104.378   241530
3   2   -0.999438   -105.093   241530
3   3   -0.999552   -105.804   241530
3   4   -0.999449   -106.505   241530
3   5   -0.999852   -107.204   241530
3   6   -0.999851   -107.916   241530
3   7   -0.999678   -108.645   241530
3   8   -1.00012   -109.359   241530
3   9   -0.999982   -110.061   241530
3   10   -1.00045   -110.754   241530
3   11   -1.00118   -111.459   241530
3   12   -1.00063   -112.181   241530
3   13   -0.999945   -112.895   241530
3   14   -1.00031   -113.599   241530
3   15   -1.00029   -114.297   241530
3   16   -0.999695   -115.005   241530
3   17   -1.00036   -115.723   241530
3   18   -1.00022   -116.438   241530
3   19   -0.999813   -117.137   241530
3   20   -1.0008   -117.832   241530
3   21   -1.00081   -118.546   241530
3   22   -0.999763   -119.257   241530
3   23   -1.00062   -119.971   241530
3   24   -1.00086   -120.685   241530
3   25   -0.999728   -121.371   241530
3   26   -1.00063   -122.075   241530
3   27   -1.00143   -122.793   241530
3   28   -1.00061   -123.496   241530
3   29   -1.00084   -124.208   241530
3   30   -1.00175   -124.908   241530
3   31   -1.00129   -125.607   241530
3   32   -1.00195   -126.34   241530
3   33   -1.00271   -127.059   241530
3   34   -1.00158   -127.752   241530
3   35   -1.00196   -128.463   241530
3   36   -1.00292   -129.182   241530
3   37   -1.00211   -129.885   241530
3   38   -1.00214   -130.608   241530
3   39   -1.00329   -131.324   241530
3   40   -1.00305   -132.01   241530
3   41   -1.00343   -132.733   241530
3   42   -1.00451   -133.466   241530
3   43   -1.00326   -134.161   241530
3   44   -1.00347   -134.878   241530
3   45   -1.00538   -135.593   241530
3   46   -1.00435   -136.283   241530
3   47   -1.0041   -137.019   241530
3   48   -1.00607   -137.75   241530
3   49   -1.00542   -138.433   241530
3   50   -1.00505   -139.136   241530
3   51   -1.00707   -139.868   241530
3   52   -1.00701   -140.585   241530
3   53   -1.00617   -141.303   241530
3   54   -1.00801   -142.032   241530
3   55   -1.00839   -142.727   241530
3   56   -1.00721   -143.436   241530
3   57   -1.00881   -144.183   241530
3   58   -1.00984   -144.904   241530
3   59   -1.00881   -145.604   241530
3   60   -1.0085   -146.29   241530
3   61   -1.00945   -147.009   241530
3   62   -1.0114   -147.774   241530
3   63   -1.01033   -148.459   241530
3   64   -1.00856   -149.126   241530
4   1   1.00779   -148.575   241532
4   2   1.00952   -147.904   241532
4   3   1.00798   -147.162   241532
4   4   1.00548   -146.395   241532
4   5   1.00638   -145.709   241532
4   6   1.0057   -145.002   241532
4   7   1.00384   -144.261   241532
4   8   1.00422   -143.568   241532
4   9   1.00411   -142.845   241532
4   10   1.00545   -142.133   241532
4   11   1.00471   -141.442   241532
4   12   1.00287   -140.711   241532
4   13   1.00467   -140.002   241532
4   14   1.00454   -139.3   241532
4   15   1.00198   -138.566   241532
4   16   1.00277   -137.868   241532
4   17   1.00414   -137.196   241532
4   18   1.00101   -136.443   241532
4   19   1.00076   -135.701   241532
4   20   1.00272   -135.029   241532
4   21   1.0013   -134.322   241532
4   22   1.00117   -133.603   241532
4   23   1.00178   -132.897   241532
4   24   1.00048   -132.166   241532
4   25   1.0005   -131.453   241532
4   26   1.00133   -130.775   241532
4   27   1.00011   -130.064   241532
4   28   0.999524   -129.34   241532
4   29   1.00014   -128.624   241532
4   30   0.999183   -127.905   241532
4   31   0.998733   -127.198   241532
4   32   0.999136   -126.496   241532
4   33   0.998622   -125.787   241532
4   34   0.998881   -125.07   241532
4   35   0.999206   -124.366   241532
4   36   0.998679   -123.673   241532
4   37   0.998881   -122.964   241532
4   38   0.999178   -122.255   241532
4   39   0.999026   -121.541   241532
4   40   0.999454   -120.831   241532
4   41   0.999288   -120.136   241532
4   42   0.998871   -119.429   241532
4   43   0.999325   -118.706   241532
4   44   0.999181   -117.986   241532
4   45   0.998829   -117.279   241532
4   46   0.999377   -116.581   241532
4   47   0.999297   -115.884   241532
4   48   0.998662   -115.171   241532
4   49   0.999049   -114.447   241532
4   50   0.999299   -113.748   241532
4   51   0.999027   -113.053   241532
4   52   0.999213   -112.345   241532
4   53   0.999205   -111.634   241532
4   54   0.999086   -110.916   241532
4   55   0.99933   -110.207   241532
4   56   0.999292   -109.516   241532
4   57   0.999208   -108.819   241532
4   58   0.999577   -108.107   241532
4   59   0.999608   -107.379   241532
4   60   0.999522   -106.669   241532
4   61   0.999698   -105.973   241532
4   62   0.99946   -105.27   241532
4   63   0.999143   -104.564   241532
4   64   0.999917   -103.854   241532
5   1   -0.999083   -103.985   241532
5   2   -0.999659   -104.682   241532
5   3   -0.999613   -105.39   241532
5   4   -0.99957   -106.093   241532
5   5   -0.999523   -106.8   241532
5   6   -0.999813   -107.504   241532
5   7   -1.00012   -108.215   241532
5   8   -0.999918   -108.929   241532
5   9   -1.00005   -109.637   241532
5   10   -1.00006   -110.346   241532
5   11   -1.0001   -111.069   241532
5   12   -1.00065   -111.777   241532
5   13   -1.00044   -112.477   241532
5   14   -1.00009   -113.194   241532
5   15   -1.00075   -113.885   241532
5   16   -1.00106   -114.581   241532
5   17   -1.00098   -115.307   241532
5   18   -1.00169   -116.018   241532
5   19   -1.00191   -116.718   241532
5   20   -1.00152   -117.425   241532
5   21   -1.0022   -118.132   241532
5   22   -1.00246   -118.852   241532
5   23   -1.00204   -119.575   241532
5   24   -1.00256   -120.282   241532
5   25   -1.00276   -120.98   241532
5   26   -1.00237   -121.694   241532
5   27   -1.00278   -122.407   241532
5   28   -1.00273   -123.105   241532
5   29   -1.0027   -123.813   241532
5   30   -1.00336   -124.507   241532
5   31   -1.00253   -125.211   241532
5   32   -1.00231   -125.95   241532
5   33   -1.00355   -126.668   241532
5   34   -1.00316   -127.36   241532
5   35   -1.00284   -128.062   241532
5   36   -1.00383   -128.771   241532
5   37   -1.00354   -129.48   241532
5   38   -1.00296   -130.2   241532
5   39   -1.00405   -130.909   241532
5   40   -1.0042   -131.603   241532
5   41   -1.00325   -132.32   241532
5   42   -1.00429   -133.042   241532
5   43   -1.00459   -133.747   241532
5   44   -1.00369   -134.459   241532
5   45   -1.00479   -135.165   241532
5   46   -1.00486   -135.865   241532
5   47   -1.00389   -136.584   241532
5   48   -1.00555   -137.299   241532
5   49   -1.00602   -137.992   241532
5   50   -1.00485   -138.684   241532
5   51   -1.00606   -139.396   241532
5   52   -1.00649   -140.111   241532
5   53   -1.00519   -140.82   241532
5   54   -1.00666   -141.545   241532
5   55   -1.0074   -142.246   241532
5   56   -1.00574   -142.945   241532
5   57   -1.00719   -143.681   241532
5   58   -1.00799   -144.404   241532
5   59   -1.00618   -145.097   241532
5   60   -1.00752   -145.805   241532
5   61   -1.00869   -146.526   241532
5   62   -1.00798   -147.244   241532
5   63   -1.00826   -147.959   241532
5   64   -1.0072   -148.642   241532
6   1   1.01016   -148.987   241534
6   2   1.00988   -148.279   241534
6   3   1.00886   -147.55   241534
6   4   1.00864   -146.818   241534
6   5   1.00732   -146.098   241534
6   6   1.00681   -145.404   241534
6   7   1.00726   -144.694   241534
6   8   1.007   -143.98   241534
6   9   1.00663   -143.253   241534
6   10   1.00684   -142.532   241534
6   11   1.00669   -141.836   241534
6   12   1.00633   -141.127   241534
6   13   1.00641   -140.406   241534
6   14   1.00658   -139.695   241534
6   15   1.0059   -138.979   241534
6   16   1.00569   -138.27   241534
6   17   1.0065   -137.58   241534
6   18   1.00599   -136.853   241534
6   19   1.00523   -136.115   241534
6   20   1.00644   -135.42   241534
6   21   1.00622   -134.722   241534
6   22   1.0048   -134.017   241534
6   23   1.00511   -133.319   241534
6   24   1.00453   -132.591   241534
6   25   1.0038   -131.868   241534
6   26   1.00444   -131.171   241534
6   27   1.00404   -130.457   241534
6   28   1.00326   -129.746   241534
6   29   1.0041   -129.048   241534
6   30   1.0038   -128.345   241534
6   31   1.00281   -127.642   241534
6   32   1.00358   -126.941   241534
6   33   1.00342   -126.224   241534
6   34   1.0026   -125.507   241534
6   35   1.00346   -124.806   241534
6   36   1.00324   -124.102   241534
6   37   1.00206   -123.393   241534
6   38   1.003   -122.684   241534
6   39   1.00313   -121.962   241534
6   40   1.00207   -121.256   241534
6   41   1.00274   -120.559   241534
6   42   1.00273   -119.847   241534
6   43   1.0016   -119.141   241534
6   44   1.00218   -118.422   241534
6   45   1.00238   -117.71   241534
6   46   1.0014   -117.025   241534
6   47   1.00189   -116.312   241534
6   48   1.00215   -115.591   241534
6   49   1.0013   -114.882   241534
6   50   1.00175   -114.16   241534
6   51   1.00174   -113.451   241534
6   52   1.0009   -112.754   241534
6   53   1.00156   -112.036   241534
6   54   1.00155   -111.321   241534
6   55   1.00059   -110.625   241534
6   56   1.0009   -109.919   241534
6   57   1.00113   -109.21   241534
6   58   1.0007   -108.509   241534
6   59   1.00062   -107.79   241534
6   60   1.00054   -107.084   241534
6   61   1.00009   -106.402   241534
6   62   0.999957   -105.694   241534
6   63   1.00011   -104.972   241534
6   64   1.0007   -104.269   241534
7   1   -1.00036   -104.241   241534
7   2   -0.999636   -104.953   241534
7   3   -0.999837   -105.659   241534
7   4   -0.999937   -106.362   241534
7   5   -0.999449   -107.077   241534
7   6   -0.999695   -107.783   241534
7   7   -0.999874   -108.496   241534
7   8   -0.999422   -109.217   241534
7   9   -0.999635   -109.917   241534
7   10   -0.999824   -110.612   241534
7   11   -0.999684   -111.332   241534
7   12   -1.00013   -112.048   241534
7   13   -0.999972   -112.756   241534
7   14   -0.999688   -113.467   241534
7   15   -1.00023   -114.159   241534
7   16   -1.00024   -114.86   241534
7   17   -0.999864   -115.588   241534
7   18   -1.0004   -116.295   241534
7   19   -1.0004   -116.994   241534
7   20   -0.999924   -117.715   241534
7   21   -1.00074   -118.425   241534
7   22   -1.00095   -119.134   241534
7   23   -1.00033   -119.862   241534
7   24   -1.00117   -120.567   241534
7   25   -1.00133   -121.257   241534
7   26   -1.00055   -121.977   241534
7   27   -1.00133   -122.681   241534
7   28   -1.0012   -123.38   241534
7   29   -1.00092   -124.105   241534
7   30   -1.00104   -124.802   241534
7   31   -1.00001   -125.493   241534
7   32   -1.00058   -126.227   241534
7   33   -1.00184   -126.945   241534
7   34   -1.0012   -127.638   241534
7   35   -1.00077   -128.351   241534
7   36   -1.00177   -129.061   241534
7   37   -1.00117   -129.761   241534
7   38   -1.00091   -130.477   241534
7   39   -1.00256   -131.183   241534
7   40   -1.00203   -131.862   241534
7   41   -1.00122   -132.578   241534
7   42   -1.00299   -133.31   241534
7   43   -1.003   -134.021   241534
7   44   -1.00248   -134.747   241534
7   45   -1.00424   -135.464   241534
7   46   -1.00301   -136.154   241534
7   47   -1.00187   -136.88   241534
7   48   -1.00497   -137.618   241534
7   49   -1.0047   -138.297   241534
7   50   -1.0031   -139.005   241534
7   51   -1.00564   -139.748   241534
7   52   -1.00582   -140.449   241534
7   53   -1.00414   -141.155   241534
7   54   -1.00614   -141.883   241534
7   55   -1.00632   -142.586   241534
7   56   -1.00448   -143.298   241534
7   57   -1.00696   -144.043   241534
7   58   -1.00713   -144.751   241534
7   59   -1.00481   -145.447   241534
7   60   -1.00553   -146.156   241534
7   61   -1.00641   -146.866   241534
7   62   -1.00743   -147.605   241534
7   63   -1.00751   -148.308   241534
7   64   -1.0065   -148.993   241534
8   1   1.00372   -148.74   241536
8   2   1.00326   -148.026   241536
8   3   1.00263   -147.307   241536
8   4   1.00349   -146.591   241536
8   5   1.00382   -145.892   241536
8   6   1.00226   -145.17   241536
8   7   1.00196   -144.446   241536
8   8   1.0027   -143.751   241536
8   9   1.00163   -143.014   241536
8   10   1.00131   -142.285   241536
8   11   1.00221   -141.607   241536
8   12   1.00118   -140.883   241536
8   13   1.00049   -140.149   241536
8   14   1.00083   -139.444   241536
8   15   0.999544   -138.718   241536
8   16   0.999068   -137.998   241536
8   17   1.00065   -137.317   241536
8   18   0.999552   -136.585   241536
8   19   0.998227   -135.816   241536
8   20   0.999588   -135.124   241536
8   21   0.998895   -134.432   241536
8   22   0.998452   -133.713   241536
8   23   0.999528   -133.026   241536
8   24   0.998042   -132.299   241536
8   25   0.9995   -131.574   241536
8   26   1.0004   -130.902   241536
8   27   0.997539   -130.182   241536
8   28   0.999334   -129.446   241536
8   29   1.00059   -128.754   241536
8   30   0.998509   -128.042   241536
8   31   0.999774   -127.327   241536
8   32   1.00134   -126.649   241536
8   33   0.999745   -125.936   241536
8   34   0.999818   -125.191   241536
8   35   0.999985   -124.493   241536
8   36   0.999141   -123.798   241536
8   37   1.00024   -123.08   241536
8   38   1.00026   -122.379   241536
8   39   0.999426   -121.665   241536
8   40   1.00042   -120.944   241536
8   41   1.00014   -120.261   241536
8   42   0.999182   -119.571   241536
8   43   0.999903   -118.847   241536
8   44   0.999497   -118.139   241536
8   45   0.998905   -117.437   241536
8   46   0.999667   -116.735   241536
8   47   0.999521   -116.047   241536
8   48   0.99887   -115.344   241536
8   49   0.999289   -114.614   241536
8   50   0.999359   -113.917   241536
8   51   0.998944   -113.229   241536
8   52   0.999532   -112.51   241536
8   53   0.999711   -111.802   241536
8   54   0.999283   -111.095   241536
8   55   0.999553   -110.371   241536
8   56   0.99936   -109.671   241536
8   57   0.999139   -108.964   241536
8   58   0.999759   -108.229   241536
8   59   0.999608   -107.512   241536
8   60   0.999292   -106.81   241536
8   61   0.99999   -106.1   241536
8   62   0.999589   -105.397   241536
8   63   0.998818   -104.694   241536
8   64   1.00102   -103.974   241536
9   1   -1.00097   -103.803   241536
9   2   -0.998577   -104.523   241536
9   3   -0.998594   -105.229   241536
9   4   -0.998749   -105.934   241536
9   5   -0.99813   -106.637   241536
9   6   -0.998295   -107.34   241536
9   7   -0.998597   -108.055   241536
9   8   -0.998026   -108.771   241536
9   9   -0.997818   -109.49   241536
9   10   -0.997723   -110.199   241536
9   11   -0.997746   -110.907   241536
9   12   -0.99807   -111.615   241536
9   13   -0.99784   -112.323   241536
9   14   -0.99774   -113.041   241536
9   15   -0.997946   -113.741   241536
9   16   -0.997707   -114.446   241536
9   17   -0.997541   -115.17   241536
9   18   -0.99805   -115.872   241536
9   19   -0.998154   -116.572   241536
9   20   -0.997752   -117.276   241536
9   21   -0.998083   -117.978   241536
9   22   -0.998099   -118.693   241536
9   23   -0.997948   -119.41   241536
9   24   -0.998614   -120.1   241536
9   25   -0.998356   -120.786   241536
9   26   -0.997918   -121.504   241536
9   27   -0.998699   -122.218   241536
9   28   -0.998123   -122.917   241536
9   29   -0.997801   -123.628   241536
9   30   -0.999045   -124.333   241536
9   31   -0.998497   -125.037   241536
9   32   -0.997998   -125.762   241536
9   33   -0.999015   -126.468   241536
9   34   -0.998524   -127.158   241536
9   35   -0.997854   -127.869   241536
9   36   -0.999252   -128.58   241536
9   37   -0.999303   -129.29   241536
9   38   -0.998961   -130.018   241536
9   39   -1.00077   -130.73   241536
9   40   -1.00019   -131.409   241536
9   41   -0.999276   -132.129   241536
9   42   -1.00125   -132.859   241536
9   43   -1.00081   -133.551   241536
9   44   -0.999631   -134.264   241536
9   45   -1.00173   -134.972   241536
9   46   -1.00131   -135.661   241536
9   47   -0.99999   -136.382   241536
9   48   -1.00239   -137.11   241536
9   49   -1.00256   -137.815   241536
9   50   -1.00055   -138.518   241536
9   51   -1.00138   -139.235   241536
9   52   -1.00229   -139.946   241536
9   53   -1.00303   -140.68   241536
9   54   -1.00369   -141.413   241536
9   55   -1.003   -142.106   241536
9   56   -1.00415   -142.841   241536
9   57   -1.00498   -143.577   241536
9   58   -1.00454   -144.279   241536
9   59   -1.00557   -145.008   241536
9   60   -1.00646   -145.722   241536
9   61   -1.00658   -146.418   241536
9   62   -1.00656   -147.124   241536
9   63   -1.00709   -147.841   241536
9   64   -1.00626   -148.527   241536
10   1   1.01057   -149.258   241538
10   2   1.01033   -148.562   241538
10   3   1.00926   -147.833   241538
10   4   1.01023   -147.121   241538
10   5   1.00898   -146.397   241538
10   6   1.00821   -145.682   241538
10   7   1.00925   -144.979   241538
10   8   1.00846   -144.255   241538
10   9   1.00757   -143.536   241538
10   10   1.00838   -142.832   241538
10   11   1.00798   -142.121   241538
10   12   1.00691   -141.4   241538
10   13   1.00751   -140.69   241538
10   14   1.00787   -139.983   241538
10   15   1.00702   -139.257   241538
10   16   1.00722   -138.542   241538
10   17   1.00753   -137.84   241538
10   18   1.0063   -137.112   241538
10   19   1.00641   -136.39   241538
10   20   1.00719   -135.696   241538
10   21   1.00619   -134.978   241538
10   22   1.00618   -134.26   241538
10   23   1.00703   -133.564   241538
10   24   1.00594   -132.843   241538
10   25   1.00585   -132.124   241538
10   26   1.00701   -131.432   241538
10   27   1.00579   -130.717   241538
10   28   1.00542   -130.001   241538
10   29   1.0068   -129.307   241538
10   30   1.00603   -128.584   241538
10   31   1.00512   -127.857   241538
10   32   1.00517   -127.154   241538
10   33   1.00439   -126.439   241538
10   34   1.00434   -125.719   241538
10   35   1.00482   -125.022   241538
10   36   1.00406   -124.31   241538
10   37   1.00397   -123.585   241538
10   38   1.00402   -122.881   241538
10   39   1.0034   -122.176   241538
10   40   1.00348   -121.452   241538
10   41   1.00318   -120.731   241538
10   42   1.00273   -120.025   241538
10   43   1.00295   -119.31   241538
10   44   1.00275   -118.6   241538
10   45   1.00238   -117.896   241538
10   46   1.00252   -117.179   241538
10   47   1.0021   -116.471   241538
10   48   1.00155   -115.767   241538
10   49   1.0017   -115.047   241538
10   50   1.00162   -114.329   241538
10   51   1.00126   -113.617   241538
10   52   1.00142   -112.899   241538
10   53   1.00143   -112.192   241538
10   54   1.00095   -111.489   241538
10   55   1.00087   -110.775   241538
10   56   1.00061   -110.075   241538
10   57   1.00041   -109.374   241538
10   58   1.00068   -108.659   241538
10   59   1.00044   -107.944   241538
10   60   1.00032   -107.234   241538
10   61   1.00063   -106.517   241538
10   62   1.00027   -105.81   241538
10   63   0.999929   -105.109   241538
10   64   1.00082   -104.399   241538
11   1   -1.0011   -104.479   241538
11   2   -1.0006   -105.178   241538
11   3   -1.0006   -105.884   241538
11   4   -1.0005   -106.596   241538
11   5   -1.00105   -107.293   241538
11   6   -1.00093   -108   241538
11   7   -1.00052   -108.722   241538
11   8   -1.00087   -109.429   241538
11   9   -1.00052   -110.137   241538
11   10   -1.00026   -110.843   241538
11   11   -1.00093   -111.553   241538
11   12   -1.00125   -112.268   241538
11   13   -1.00111   -112.978   241538
11   14   -1.00111   -113.685   241538
11   15   -1.00097   -114.383   241538
11   16   -1.00107   -115.09   241538
11   17   -1.00164   -115.818   241538
11   18   -1.00199   -116.529   241538
11   19   -1.00209   -117.231   241538
11   20   -1.00206   -117.937   241538
11   21   -1.0023   -118.639   241538
11   22   -1.00253   -119.353   241538
11   23   -1.00246   -120.064   241538
11   24   -1.00281   -120.762   241538
11   25   -1.00301   -121.459   241538
11   26   -1.00286   -122.177   241538
11   27   -1.00345   -122.89   241538
11   28   -1.00373   -123.596   241538
11   29   -1.00276   -124.316   241538
11   30   -1.00323   -125.015   241538
11   31   -1.00412   -125.715   241538
11   32   -1.003   -126.43   241538
11   33   -1.00387   -127.122   241538
11   34   -1.00523   -127.831   241538
11   35   -1.00386   -128.559   241538
11   36   -1.00353   -129.265   241538
11   37   -1.00463   -129.976   241538
11   38   -1.00481   -130.693   241538
11   39   -1.00491   -131.392   241538
11   40   -1.00548   -132.101   241538
11   41   -1.00542   -132.815   241538
11   42   -1.00523   -133.513   241538
11   43   -1.00602   -134.232   241538
11   44   -1.00573   -134.945   241538
11   45   -1.0054   -135.641   241538
11   46   -1.00639   -136.358   241538
11   47   -1.00621   -137.07   241538
11   48   -1.00618   -137.776   241538
11   49   -1.00713   -138.497   241538
11   50   -1.00833   -139.233   241538
11   51   -1.00957   -139.959   241538
11   52   -1.01001   -140.678   241538
11   53   -1.00977   -141.396   241538
11   54   -1.01029   -142.114   241538
11   55   -1.01079   -142.837   241538
11   56   -1.0106   -143.557   241538
11   57   -1.01138   -144.273   241538
11   58   -1.01152   -144.985   241538
11   59   -1.01106   -145.701   241538
11   60   -1.01187   -146.417   241538
11   61   -1.01202   -147.128   241538
11   62   -1.01221   -147.86   241538
11   63   -1.01394   -148.608   241538
11   64   -1.01274   -149.284   241538
12   1   1.00873   -148.611   241540
12   2   1.01031   -147.933   241540
12   3   1.00974   -147.196   241540
12   4   1.00845   -146.459   241540
12   5   1.00838   -145.743   241540
12   6   1.00903   -145.036   241540
12   7   1.00804   -144.316   241540
12   8   1.00767   -143.604   241540
12   9   1.00785   -142.901   241540
12   10   1.00715   -142.19   241540
12   11   1.00739   -141.476   241540
12   12   1.00814   -140.771   241540
12   13   1.00731   -140.06   241540
12   14   1.0072   -139.339   241540
12   15   1.00759   -138.624   241540
12   16   1.00673   -137.913   241540
12   17   1.00681   -137.197   241540
12   18   1.00744   -136.488   241540
12   19   1.00663   -135.775   241540
12   20   1.00643   -135.054   241540
12   21   1.00691   -134.345   241540
12   22   1.00621   -133.633   241540
12   23   1.0063   -132.907   241540
12   24   1.00664   -132.19   241540
12   25   1.006   -131.482   241540
12   26   1.00614   -130.757   241540
12   27   1.00636   -130.038   241540
12   28   1.00567   -129.326   241540
12   29   1.00537   -128.604   241540
12   30   1.00561   -127.899   241540
12   31   1.00514   -127.197   241540
12   32   1.00447   -126.475   241540
12   33   1.0043   -125.761   241540
12   34   1.00397   -125.054   241540
12   35   1.00399   -124.337   241540
12   36   1.00417   -123.624   241540
12   37   1.00366   -122.922   241540
12   38   1.00331   -122.211   241540
12   39   1.00348   -121.503   241540
12   40   1.00326   -120.8   241540
12   41   1.00308   -120.074   241540
12   42   1.00317   -119.354   241540
12   43   1.00291   -118.651   241540
12   44   1.00272   -117.936   241540
12   45   1.00274   -117.225   241540
12   46   1.00247   -116.525   241540
12   47   1.0024   -115.81   241540
12   48   1.00255   -115.098   241540
12   49   1.00216   -114.405   241540
12   50   1.00197   -113.686   241540
12   51   1.00209   -112.965   241540
12   52   1.00172   -112.267   241540
12   53   1.00155   -111.552   241540
12   54   1.00162   -110.838   241540
12   55   1.00104   -110.138   241540
12   56   1.00105   -109.423   241540
12   57   1.00119   -108.708   241540
12   58   1.00047   -108.002   241540
12   59   1.00076   -107.277   241540
12   60   1.00096   -106.561   241540
12   61   1.00036   -105.861   241540
12   62   1.00037   -105.149   241540
12   63   1.00027   -104.438   241540
12   64   1.00059   -103.753   241540
13   1   -0.999157   -104.051   241540
13   2   -0.998778   -104.737   241540
13   3   -0.998563   -105.451   241540
13   4   -0.998448   -106.167   241540
13   5   -0.999047   -106.866   241540
13   6   -0.998585   -107.573   241540
13   7   -0.998198   -108.288   241540
13   8   -0.998916   -108.991   241540
13   9   -0.998512   -109.71   241540
13   10   -0.998211   -110.432   241540
13   11   -0.999174   -111.134   241540
13   12   -0.998957   -111.84   241540
13   13   -0.99821   -112.554   241540
13   14   -0.998743   -113.263   241540
13   15   -0.998696   -113.971   241540
13   16   -0.998244   -114.685   241540
13   17   -0.99889   -115.398   241540
13   18   -0.998923   -116.1   241540
13   19   -0.998449   -116.808   241540
13   20   -0.99886   -117.525   241540
13   21   -0.998901   -118.224   241540
13   22   -0.998526   -118.926   241540
13   23   -0.999027   -119.647   241540
13   24   -0.999288   -120.351   241540
13   25   -0.998982   -121.055   241540
13   26   -0.999213   -121.779   241540
13   27   -0.999406   -122.484   241540
13   28   -0.999102   -123.182   241540
13   29   -0.998452   -123.898   241540
13   30   -0.998669   -124.602   241540
13   31   -0.998915   -125.306   241540
13   32   -0.998152   -126.028   241540
13   33   -0.998561   -126.73   241540
13   34   -0.998788   -127.435   241540
13   35   -0.997688   -128.154   241540
13   36   -0.998194   -128.858   241540
13   37   -0.998718   -129.566   241540
13   38   -0.997629   -130.285   241540
13   39   -0.998092   -130.991   241540
13   40   -0.998698   -131.697   241540
13   41   -0.997186   -132.405   241540
13   42   -0.998017   -133.112   241540
13   43   -0.999258   -133.824   241540
13   44   -0.997473   -134.53   241540
13   45   -0.99838   -135.244   241540
13   46   -0.999655   -135.964   241540
13   47   -0.997655   -136.67   241540
13   48   -0.997806   -137.378   241540
13   49   -0.999305   -138.096   241540
13   50   -1.00004   -138.822   241540
13   51   -1.0006   -139.54   241540
13   52   -1.00074   -140.251   241540
13   53   -1.00085   -140.964   241540
13   54   -1.00082   -141.665   241540
13   55   -1.00145   -142.382   241540
13   56   -1.00138   -143.105   241540
13   57   -1.00127   -143.809   241540
13   58   -1.00174   -144.524   241540
13   59   -1.00161   -145.242   241540
13   60   -1.00182   -145.949   241540
13   61   -1.00251   -146.67   241540
13   62   -1.00278   -147.394   241540
13   63   -1.00788   -148.204   241540
13   64   -1.0191   -149.146   241540
14   1   1.00731   -148.998   241542
14   2   1.01008   -148.339   241542
14   3   1.00856   -147.603   241542
14   4   1.00782   -146.875   241542
14   5   1.00705   -146.152   241542
14   6   1.00735   -145.453   241542
14   7   1.00668   -144.732   241542
14   8   1.00631   -144.011   241542
14   9   1.00675   -143.302   241542
14   10   1.00689   -142.591   241542
14   11   1.00648   -141.878   241542
14   12   1.00618   -141.167   241542
14   13   1.00597   -140.453   241542
14   14   1.00577   -139.739   241542
14   15   1.00584   -139.028   241542
14   16   1.00583   -138.316   241542
14   17   1.00599   -137.602   241542
14   18   1.00581   -136.888   241542
14   19   1.00517   -136.179   241542
14   20   1.00477   -135.465   241542
14   21   1.00511   -134.751   241542
14   22   1.00519   -134.044   241542
14   23   1.00482   -133.329   241542
14   24   1.00497   -132.615   241542
14   25   1.00492   -131.906   241542
14   26   1.00474   -131.194   241542
14   27   1.00488   -130.484   241542
14   28   1.00476   -129.772   241542
14   29   1.00449   -129.057   241542
14   30   1.00441   -128.343   241542
14   31   1.00435   -127.631   241542
14   32   1.00438   -126.919   241542
14   33   1.00417   -126.206   241542
14   34   1.00381   -125.494   241542
14   35   1.00386   -124.783   241542
14   36   1.00382   -124.073   241542
14   37   1.00343   -123.364   241542
14   38   1.00318   -122.652   241542
14   39   1.00325   -121.942   241542
14   40   1.00354   -121.233   241542
14   41   1.00342   -120.517   241542
14   42   1.00303   -119.802   241542
14   43   1.00335   -119.093   241542
14   44   1.00321   -118.38   241542
14   45   1.0025   -117.665   241542
14   46   1.00234   -116.957   241542
14   47   1.00199   -116.247   241542
14   48   1.00143   -115.532   241542
14   49   1.00149   -114.818   241542
14   50   1.00166   -114.105   241542
14   51   1.00135   -113.395   241542
14   52   1.00118   -112.686   241542
14   53   1.0011   -111.977   241542
14   54   1.00086   -111.27   241542
14   55   1.00064   -110.56   241542
14   56   1.0005   -109.846   241542
14   57   1.00026   -109.139   241542
14   58   0.999925   -108.433   241542
14   59   1.00007   -107.724   241542
14   60   1.00022   -107.018   241542
14   61   0.999831   -106.309   241542
14   62   0.999748   -105.597   241542
14   63   0.999759   -104.89   241542
14   64   1.00066   -104.186   241542
15   1   -1.00051   -104.338   241542
15   2   -0.998649   -105.032   241542
15   3   -0.998259   -105.741   241542
15   4   -0.998303   -106.451   241542
15   5   -0.998789   -107.157   241542
15   6   -0.99844   -107.863   241542
15   7   -0.998097   -108.569   241542
15   8   -0.998538   -109.273   241542
15   9   -0.998249   -109.979   241542
15   10   -0.998071   -110.69   241542
15   11   -0.998785   -111.401   241542
15   12   -0.998748   -112.103   241542
15   13   -0.998216   -112.805   241542
15   14   -0.998466   -113.516   241542
15   15   -0.998809   -114.224   241542
15   16   -0.99849   -114.934   241542
15   17   -0.99866   -115.65   241542
15   18   -0.998857   -116.361   241542
15   19   -0.998421   -117.07   241542
15   20   -0.998596   -117.783   241542
15   21   -0.998755   -118.485   241542
15   22   -0.998379   -119.19   241542
15   23   -0.998662   -119.908   241542
15   24   -0.998904   -120.613   241542
15   25   -0.998368   -121.318   241542
15   26   -0.998484   -122.034   241542
15   27   -0.998677   -122.738   241542
15   28   -0.998202   -123.443   241542
15   29   -0.998014   -124.155   241542
15   30   -0.998174   -124.861   241542
15   31   -0.99803   -125.57   241542
15   32   -0.997783   -126.283   241542
15   33   -0.997989   -126.99   241542
15   34   -0.997885   -127.698   241542
15   35   -0.997476   -128.41   241542
15   36   -0.997855   -129.114   241542
15   37   -0.998113   -129.825   241542
15   38   -0.997613   -130.538   241542
15   39   -0.997709   -131.242   241542
15   40   -0.997982   -131.954   241542
15   41   -0.997717   -132.672   241542
15   42   -0.998081   -133.379   241542
15   43   -0.998497   -134.088   241542
15   44   -0.998457   -134.804   241542
15   45   -0.998763   -135.514   241542
15   46   -0.99854   -136.221   241542
15   47   -0.99846   -136.937   241542
15   48   -0.998909   -137.643   241542
15   49   -0.999906   -138.359   241542
15   50   -1.00068   -139.089   241542
15   51   -1.00105   -139.803   241542
15   52   -1.00073   -140.504   241542
15   53   -1.00025   -141.213   241542
15   54   -1.00163   -141.937   241542
15   55   -1.00201   -142.652   241542
15   56   -1.00115   -143.361   241542
15   57   -1.00211   -144.078   241542
15   58   -1.00336   -144.801   241542
15   59   -1.0026   -145.51   241542
15   60   -1.00278   -146.222   241542
15   61   -1.00419   -146.955   241542
15   62   -1.00398   -147.672   241542
15   63   -1.00497   -148.399   241542
15   64   -1.00436   -149.098   241542
16   1   1.01443   -148.875   241544
16   2   1.01058   -148.093   241544
16   3   1.00621   -147.298   241544
16   4   1.00731   -146.588   241544
16   5   1.00668   -145.87   241544
16   6   1.00495   -145.131   241544
16   7   1.00628   -144.428   241544
16   8   1.00566   -143.717   241544
16   9   1.00387   -142.979   241544
16   10   1.00496   -142.269   241544
16   11   1.00479   -141.564   241544
16   12   1.00312   -140.834   241544
16   13   1.00381   -140.12   241544
16   14   1.00352   -139.409   241544
16   15   1.00177   -138.677   241544
16   16   1.00243   -137.959   241544
16   17   1.00271   -137.254   241544
16   18   1.00115   -136.527   241544
16   19   1.00129   -135.804   241544
16   20   1.00178   -135.102   241544
16   21   1.0007   -134.387   241544
16   22   1.00039   -133.669   241544
16   23   1.00029   -132.966   241544
16   24   0.99949   -132.251   241544
16   25   0.99958   -131.531   241544
16   26   0.999963   -130.828   241544
16   27   0.999339   -130.119   241544
16   28   0.999093   -129.402   241544
16   29   0.999457   -128.694   241544
16   30   0.999044   -127.98   241544
16   31   0.998983   -127.263   241544
16   32   0.999672   -126.563   241544
16   33   0.999029   -125.855   241544
16   34   0.998522   -125.144   241544
16   35   0.999433   -124.445   241544
16   36   0.999239   -123.737   241544
16   37   0.998842   -123.024   241544
16   38   0.999475   -122.325   241544
16   39   0.999494   -121.623   241544
16   40   0.999221   -120.907   241544
16   41   0.999303   -120.196   241544
16   42   0.999172   -119.487   241544
16   43   0.999415   -118.774   241544
16   44   0.999211   -118.066   241544
16   45   0.998751   -117.359   241544
16   46   0.999187   -116.646   241544
16   47   0.999278   -115.934   241544
16   48   0.999318   -115.226   241544
16   49   0.999546   -114.516   241544
16   50   0.999531   -113.804   241544
16   51   0.999466   -113.099   241544
16   52   0.999627   -112.391   241544
16   53   0.99974   -111.683   241544
16   54   0.999567   -110.976   241544
16   55   0.999628   -110.265   241544
16   56   0.99944   -109.557   241544
16   57   0.999239   -108.85   241544
16   58   0.999615   -108.138   241544
16   59   0.999553   -107.429   241544
16   60   0.999417   -106.719   241544
16   61   0.999764   -106.001   241544
16   62   1.00005   -105.295   241544
16   63   1.00029   -104.589   241544
16   64   1.00127   -103.881   241544
17   1   -1.00035   -103.896   241544
17   2   -0.999273   -104.608   241544
17   3   -0.999068   -105.31   241544
17   4   -0.998945   -106.019   241544
17   5   -0.998969   -106.743   241544
17   6   -0.998691   -107.442   241544
17   7   -0.998596   -108.147   241544
17   8   -0.998995   -108.87   241544
17   9   -0.998782   -109.575   241544
17   10   -0.998614   -110.287   241544
17   11   -0.999417   -111.008   241544
17   12   -0.999435   -111.713   241544
17   13   -0.998805   -112.42   241544
17   14   -0.999084   -113.138   241544
17   15   -0.999601   -113.837   241544
17   16   -0.999197   -114.544   241544
17   17   -0.998642   -115.265   241544
17   18   -0.998898   -115.966   241544
17   19   -0.99875   -116.672   241544
17   20   -0.99826   -117.391   241544
17   21   -0.998654   -118.09   241544
17   22   -0.998717   -118.796   241544
17   23   -0.998582   -119.52   241544
17   24   -0.998949   -120.221   241544
17   25   -0.998754   -120.925   241544
17   26   -0.998587   -121.65   241544
17   27   -0.99909   -122.356   241544
17   28   -0.998579   -123.056   241544
17   29   -0.998436   -123.778   241544
17   30   -0.999224   -124.483   241544
17   31   -0.998375   -125.177   241544
17   32   -0.997915   -125.893   241544
17   33   -0.998751   -126.603   241544
17   34   -0.998189   -127.306   241544
17   35   -0.99759   -128.021   241544
17   36   -0.998402   -128.727   241544
17   37   -0.997923   -129.428   241544
17   38   -0.997182   -130.148   241544
17   39   -0.997981   -130.855   241544
17   40   -0.997613   -131.551   241544
17   41   -0.996637   -132.266   241544
17   42   -0.997288   -132.976   241544
17   43   -0.997557   -133.678   241544
17   44   -0.998562   -134.405   241544
17   45   -0.999667   -135.122   241544
17   46   -0.998487   -135.814   241544
17   47   -0.999078   -136.544   241544
17   48   -1.0006   -137.268   241544
17   49   -0.999893   -137.964   241544
17   50   -1.00008   -138.693   241544
17   51   -1.0012   -139.414   241544
17   52   -1.00085   -140.114   241544
17   53   -1.00096   -140.84   241544
17   54   -1.00288   -141.576   241544
17   55   -1.0031   -142.279   241544
17   56   -1.0029   -142.996   241544
17   57   -1.00496   -143.742   241544
17   58   -1.0048   -144.445   241544
17   59   -1.0032   -145.135   241544
17   60   -1.00548   -145.88   241544
17   61   -1.00734   -146.619   241544
17   62   -1.00669   -147.333   241544
17   63   -1.00757   -148.057   241544
17   64   -1.00651   -148.744   241544
18   1   1.00324   -149.014   241546
18   2   1.00491   -148.342   241546
18   3   1.00548   -147.64   241546
18   4   1.0042   -146.898   241546
18   5   1.00449   -146.186   241546
18   6   1.00396   -145.47   241546
18   7   1.00271   -144.735   241546
18   8   1.00376   -144.039   241546
18   9   1.00311   -143.316   241546
18   10   1.00176   -142.583   241546
18   11   1.00207   -141.89   241546
18   12   1.00177   -141.177   241546
18   13   1.00233   -140.462   241546
18   14   1.00184   -139.751   241546
18   15   1.00056   -139.027   241546
18   16   1.00138   -138.317   241546
18   17   1.00148   -137.612   241546
18   18   1.00016   -136.893   241546
18   19   1.00057   -136.182   241546
18   20   1.00106   -135.482   241546
18   21   0.999837   -134.763   241546
18   22   1.00014   -134.046   241546
18   23   1.0009   -133.351   241546
18   24   0.999832   -132.637   241546
18   25   0.999754   -131.921   241546
18   26   1.00061   -131.226   241546
18   27   0.999788   -130.517   241546
18   28   0.999566   -129.807   241546
18   29   1.00105   -129.111   241546
18   30   1.00094   -128.402   241546
18   31   1.00007   -127.681   241546
18   32   1.00051   -126.975   241546
18   33   1.00004   -126.269   241546
18   34   0.999477   -125.554   241546
18   35   1.00008   -124.847   241546
18   36   0.999666   -124.141   241546
18   37   0.999183   -123.432   241546
18   38   0.999233   -122.725   241546
18   39   0.998962   -122.018   241546
18   40   0.999408   -121.314   241546
18   41   0.999679   -120.606   241546
18   42   0.999163   -119.898   241546
18   43   0.999218   -119.19   241546
18   44   0.999186   -118.484   241546
18   45   0.999166   -117.781   241546
18   46   0.999591   -117.073   241546
18   47   0.999314   -116.366   241546
18   48   0.999431   -115.66   241546
18   49   1.00006   -114.952   241546
18   50   0.999635   -114.24   241546
18   51   0.999863   -113.53   241546
18   52   1.00026   -112.819   241546
18   53   0.999544   -112.107   241546
18   54   0.999438   -111.399   241546
18   55   0.999829   -110.694   241546
18   56   0.999721   -109.98   241546
18   57   0.999548   -109.268   241546
18   58   0.99969   -108.564   241546
18   59   0.999298   -107.858   241546
18   60   0.999503   -107.149   241546
18   61   1.00022   -106.437   241546
18   62   0.999787   -105.726   241546
18   63   0.999474   -105.016   241546
18   64   1.00128   -104.309   241546
19   1   -0.999001   -104.202   241546
19   2   -0.996882   -104.927   241546
19   3   -0.997577   -105.631   241546
19   4   -0.997855   -106.343   241546
19   5   -0.997812   -107.061   241546
19   6   -0.99777   -107.759   241546
19   7   -0.997658   -108.471   241546
19   8   -0.997557   -109.196   241546
19   9   -0.997609   -109.898   241546
19   10   -0.9978   -110.599   241546
19   11   -0.997524   -111.314   241546
19   12   -0.99734   -112.022   241546
19   13   -0.997581   -112.727   241546
19   14   -0.997449   -113.443   241546
19   15   -0.997504   -114.146   241546
19   16   -0.997921   -114.855   241546
19   17   -0.997766   -115.574   241546
19   18   -0.997532   -116.276   241546
19   19   -0.997901   -116.984   241546
19   20   -0.99808   -117.706   241546
19   21   -0.997869   -118.414   241546
19   22   -0.998268   -119.129   241546
19   23   -0.9986   -119.852   241546
19   24   -0.998731   -120.558   241546
19   25   -0.99947   -121.27   241546
19   26   -1.00014   -121.991   241546
19   27   -1.00026   -122.696   241546
19   28   -1.00045   -123.406   241546
19   29   -1.00019   -124.119   241546
19   30   -1.00008   -124.82   241546
19   31   -1.00084   -125.532   241546
19   32   -1.00023   -126.241   241546
19   33   -1.00028   -126.943   241546
19   34   -1.0014   -127.661   241546
19   35   -1.00078   -128.374   241546
19   36   -1.0011   -129.077   241546
19   37   -1.00192   -129.794   241546
19   38   -1.00112   -130.511   241546
19   39   -1.00149   -131.219   241546
19   40   -1.00253   -131.937   241546
19   41   -1.00183   -132.65   241546
19   42   -1.00192   -133.354   241546
19   43   -1.00294   -134.067   241546
19   44   -1.00164   -134.769   241546
19   45   -1.00205   -135.474   241546
19   46   -1.00413   -136.206   241546
19   47   -1.00288   -136.91   241546
19   48   -1.00311   -137.616   241546
19   49   -1.00521   -138.359   241546
19   50   -1.00409   -139.073   241546
19   51   -1.00483   -139.788   241546
19   52   -1.00682   -140.524   241546
19   53   -1.00584   -141.234   241546
19   54   -1.00633   -141.95   241546
19   55   -1.00789   -142.683   241546
19   56   -1.00716   -143.398   241546
19   57   -1.00697   -144.109   241546
19   58   -1.00941   -144.857   241546
19   59   -1.00988   -145.582   241546
19   60   -1.00907   -146.281   241546
19   61   -1.01029   -147.016   241546
19   62   -1.0108   -147.739   241546
19   63   -1.0125   -148.477   241546
19   64   -1.01754   -149.293   241546
20   1   1.01066   -148.95   241548
20   2   1.01151   -148.236   241548
20   3   1.01101   -147.514   241548
20   4   1.00784   -146.756   241548
20   5   1.00729   -146.029   241548
20   6   1.00809   -145.332   241548
20   7   1.0068   -144.604   241548
20   8   1.00581   -143.871   241548
20   9   1.00566   -143.163   241548
20   10   1.00483   -142.447   241548
20   11   1.00492   -141.733   241548
20   12   1.00488   -141.026   241548
20   13   1.00289   -140.299   241548
20   14   1.00289   -139.58   241548
20   15   1.00314   -138.87   241548
20   16   1.00133   -138.148   241548
20   17   1.00188   -137.44   241548
20   18   1.00252   -136.734   241548
20   19   1.00104   -136.015   241548
20   20   1.00073   -135.298   241548
20   21   1.00104   -134.589   241548
20   22   1.00013   -133.875   241548
20   23   1.00003   -133.156   241548
20   24   1.00066   -132.446   241548
20   25   0.999824   -131.736   241548
20   26   0.999524   -131.018   241548
20   27   1.00027   -130.311   241548
20   28   0.999437   -129.605   241548
20   29   0.999119   -128.887   241548
20   30   0.999807   -128.175   241548
20   31   0.999155   -127.47   241548
20   32   0.999195   -126.756   241548
20   33   0.999805   -126.051   241548
20   34   0.999236   -125.35   241548
20   35   0.999132   -124.635   241548
20   36   0.99979   -123.921   241548
20   37   0.999506   -123.212   241548
20   38   0.999213   -122.497   241548
20   39   0.999634   -121.786   241548
20   40   0.999474   -121.082   241548
20   41   0.99917   -120.369   241548
20   42   0.999364   -119.659   241548
20   43   0.999511   -118.954   241548
20   44   0.999473   -118.238   241548
20   45   0.999476   -117.527   241548
20   46   0.999444   -116.826   241548
20   47   0.999492   -116.115   241548
20   48   0.999539   -115.406   241548
20   49   0.99944   -114.698   241548
20   50   0.999493   -113.978   241548
20   51   0.999564   -113.261   241548
20   52   0.999461   -112.555   241548
20   53   0.999569   -111.843   241548
20   54   0.99967   -111.133   241548
20   55   0.999515   -110.427   241548
20   56   0.999583   -109.713   241548
20   57   0.999698   -109.001   241548
20   58   0.999404   -108.298   241548
20   59   0.999868   -107.581   241548
20   60   1.00024   -106.864   241548
20   61   0.999726   -106.157   241548
20   62   0.999951   -105.445   241548
20   63   1.00009   -104.736   241548
20   64   1.00138   -104.035   241548
