ActsPixelClusterizationAlg                                        INFO Clusterization statistics
|----------|------------|
| RDOs     |    3423993 |
| Clusters |    1165578 |
|----------|------------|
ActsStripClusterizationAlg                                        INFO Clusterization statistics
|----------|------------|
| RDOs     |    1345365 |
| Clusters |    1081478 |
|----------|------------|
ActsPixelSpacePointFormationAlg                                   INFO Space Point Formation statistics
|--------------|------------|
| Clusters     |    1165578 |
| Space Points |    1165578 |
|--------------|------------|
ActsStripSpacePointFormationAlg                                   INFO Space Point Formation statistics
|----------------------|------------|
| Clusters             |    1081478 |
| Space Points         |     325456 |
| Overlap Space Points |     101370 |
|----------------------|------------|
ActsPixelSeedingAlg                                               INFO Seed statistics
|-------------|------------|
| Spacepoints |    1165578 |
| Seeds       |     123542 |
|-------------|------------|
ActsStripSeedingAlg                                               INFO Seed statistics
|-------------|------------|
| Spacepoints |     426826 |
| Seeds       |      25844 |
|-------------|------------|
ActsTrackFindingAlg                                               INFO statistics
|-----------------------------------|------------|------------|------------|
|                           All eta | PPP        | SSS        | ALL        |
|-----------------------------------|------------|------------|------------|
| Input seeds                       |     123542 |      25844 |     149386 |
| No track parameters               |          0 |          0 |          0 |
| Used   seeds                      |      77657 |      16354 |      94011 |
| Cannot find track                 |      62932 |      12469 |      75401 |
| Duplicate seeds                   |      45885 |       9490 |      55375 |
| Initial param estimation failed   |          0 |          0 |          0 |
| CKF tracks                        |      14725 |       3885 |      18610 |
| Rejected refined parameters       |          0 |          0 |          0 |
| selected tracks                   |      13299 |        818 |      14117 |
| Stopped tracks reaching max holes |      60557 |      11952 |      72509 |
| Seeds with more than one branch   |          0 |          0 |          0 |
| Tracks failing second CKF         |          8 |        195 |        203 |
| Stopped tracks below pT cut       |       2375 |        517 |       2892 |
| Stopped tracks above max eta      |          0 |          0 |          0 |
| Total shared hits                 |      92589 |      18289 |     110878 |
|-----------------------------------|------------|------------|------------|
ActsTrackFindingAlg                                               INFO Ratios
|------------------------------------------|------------|------------|------------|
|                                          | PPP        | SSS        | ALL        |
|------------------------------------------|------------|------------|------------|
| failed / seeds                           |   0.509398 |   0.482472 |   0.504739 |
| duplication / seeds                      |   0.371412 |   0.367203 |   0.370684 |
| Rejected refined params / seeds          |          0 |          0 |          0 |
| selected / CKF tracks                    |   0.903158 |   0.210553 |   0.758571 |
| selected tracks / used seeds             |   0.171253 |  0.0500183 |   0.150163 |
| branched tracks / used seeds             |          0 |          0 |          0 |
| no 2nd CKF / CKF tracks                  | 0.000543294 |   0.050193 |  0.0109081 |
| shared hits / CKF tracks                 |    6.28788 |    4.70759 |    5.95798 |
|------------------------------------------|------------|------------|------------|
| selected / CKF tracks           0.0- 0.5 |    0.88985 |   0.115681 |   0.708434 |
|                                 0.5- 1.0 |   0.910283 |   0.244318 |   0.732423 |
|                                 1.0- 1.5 |   0.884349 |   0.222798 |   0.695007 |
|                                 1.5- 2.0 |   0.792257 |   0.216752 |   0.547105 |
|                                 2.0- 2.5 |   0.942365 |   0.214008 |   0.697515 |
|                                 2.5- 3.0 |   0.882612 |          0 |   0.882612 |
|                                 3.0- 3.5 |   0.942695 |          0 |   0.942695 |
|                                 3.5-+inf |   0.961572 |          0 |   0.961572 |
|------------------------------------------|------------|------------|------------|
ActsPrdAssociationAlg                                             INFO Prd Map statistics
|-----------------------|------------|
| N. Tracks             |       9570 |
| N. Pixel Measurements |     102778 |
| N. Strip Measurements |      40127 |
| N. Hgtd Measurements  |          0 |
|-----------------------|------------|
ActsLargeRadiusPixelClusterPreparationAlg                         INFO Data Prep statistics
|---------|------------|
| Inputs  |    1165578 |
| Outputs |    1062866 |
|---------|------------|
ActsLargeRadiusStripClusterPreparationAlg                         INFO Data Prep statistics
|---------|------------|
| Inputs  |    1081478 |
| Outputs |    1041386 |
|---------|------------|
ActsLargeRadiusStripSpacePointPreparationAlg                      INFO Data Prep statistics
|---------|------------|
| Inputs  |     325456 |
| Outputs |     303547 |
|---------|------------|
ActsLargeRadiusStripOv...pSpacePointPreparationAlg                INFO Data Prep statistics
|---------|------------|
| Inputs  |     101370 |
| Outputs |      94565 |
|---------|------------|
ActsLargeRadiusStripSeedingAlg                                    INFO Seed statistics
|-------------|------------|
| Spacepoints |     398112 |
| Seeds       |      10144 |
|-------------|------------|
ActsLargeRadiusTrackFindingAlg                                    INFO statistics
|-----------------------------------|------------|------------|
|                           All eta | SSS        | ALL        |
|-----------------------------------|------------|------------|
| Input seeds                       |      10144 |      10144 |
| No track parameters               |          0 |          0 |
| Used   seeds                      |       9925 |       9925 |
| Cannot find track                 |       8962 |       8962 |
| Duplicate seeds                   |        219 |        219 |
| Initial param estimation failed   |          0 |          0 |
| CKF tracks                        |        963 |        963 |
| Rejected refined parameters       |          0 |          0 |
| selected tracks                   |        133 |        133 |
| Stopped tracks reaching max holes |       6991 |       6991 |
| Seeds with more than one branch   |          0 |          0 |
| Tracks failing second CKF         |         30 |         30 |
| Stopped tracks below pT cut       |       1971 |       1971 |
| Stopped tracks above max eta      |          0 |          0 |
| Total shared hits                 |        776 |        776 |
|-----------------------------------|------------|------------|
ActsLargeRadiusTrackFindingAlg                                    INFO Ratios
|------------------------------------------|------------|------------|
|                                          | SSS        | ALL        |
|------------------------------------------|------------|------------|
| failed / seeds                           |   0.883478 |   0.883478 |
| duplication / seeds                      |  0.0215891 |  0.0215891 |
| Rejected refined params / seeds          |          0 |          0 |
| selected / CKF tracks                    |    0.13811 |    0.13811 |
| selected tracks / used seeds             |  0.0134005 |  0.0134005 |
| branched tracks / used seeds             |          0 |          0 |
| no 2nd CKF / CKF tracks                  |  0.0311526 |  0.0311526 |
| shared hits / CKF tracks                 |   0.805815 |   0.805815 |
|------------------------------------------|------------|------------|
| selected / CKF tracks           0.0- 0.5 |   0.169014 |   0.169014 |
|                                 0.5- 1.0 |   0.228916 |   0.228916 |
|                                 1.0- 1.5 |   0.212766 |   0.212766 |
|                                 1.5- 2.0 |    0.13948 |    0.13948 |
|                                 2.0- 2.5 |  0.0787671 |  0.0787671 |
|                                 2.5- 3.0 |          0 |          0 |
|                                 3.0- 3.5 |          0 |          0 |
|                                 3.5-+inf |          0 |          0 |
|------------------------------------------|------------|------------|
ActsLargeRadiusPrdAssociationAlg                                  INFO Prd Map statistics
|-----------------------|------------|
| N. Tracks             |         98 |
| N. Pixel Measurements |        486 |
| N. Strip Measurements |        941 |
| N. Hgtd Measurements  |          0 |
|-----------------------|------------|
ActsConversionPixelClusterPreparationAlg                          INFO Data Prep statistics
|---------|------------|
| Inputs  |    1165578 |
| Outputs |      27119 |
|---------|------------|
ActsConversionStripClusterPreparationAlg                          INFO Data Prep statistics
|---------|------------|
| Inputs  |    1081478 |
| Outputs |      15520 |
|---------|------------|
ActsConversionStripSpacePointPreparationAlg                       INFO Data Prep statistics
|---------|------------|
| Inputs  |     325456 |
| Outputs |       4505 |
|---------|------------|
ActsConversionStripSeedingAlg                                     INFO Seed statistics
|-------------|------------|
| Spacepoints |       4505 |
| Seeds       |         71 |
|-------------|------------|
ActsConversionTrackFindingAlg                                     INFO statistics
|-----------------------------------|------------|------------|
|                           All eta | SSS        | ALL        |
|-----------------------------------|------------|------------|
| Input seeds                       |         71 |         71 |
| No track parameters               |          0 |          0 |
| Used   seeds                      |         71 |         71 |
| Cannot find track                 |         54 |         54 |
| Duplicate seeds                   |          0 |          0 |
| Initial param estimation failed   |          0 |          0 |
| CKF tracks                        |         17 |         17 |
| Rejected refined parameters       |          0 |          0 |
| selected tracks                   |          0 |          0 |
| Stopped tracks reaching max holes |         46 |         46 |
| Seeds with more than one branch   |          0 |          0 |
| Tracks failing second CKF         |          0 |          0 |
| Stopped tracks below pT cut       |          8 |          8 |
| Stopped tracks above max eta      |          0 |          0 |
| Total shared hits                 |          0 |          0 |
|-----------------------------------|------------|------------|
ActsConversionTrackFindingAlg                                     INFO Ratios
|------------------------------------------|------------|------------|
|                                          | SSS        | ALL        |
|------------------------------------------|------------|------------|
| failed / seeds                           |   0.760563 |   0.760563 |
| duplication / seeds                      |          0 |          0 |
| Rejected refined params / seeds          |          0 |          0 |
| selected / CKF tracks                    |          0 |          0 |
| selected tracks / used seeds             |          0 |          0 |
| branched tracks / used seeds             |          0 |          0 |
| no 2nd CKF / CKF tracks                  |          0 |          0 |
| shared hits / CKF tracks                 |          0 |          0 |
|------------------------------------------|------------|------------|
| selected / CKF tracks           0.0- 0.5 |          0 |          0 |
|                                 0.5- 1.0 |          0 |          0 |
|                                 1.0- 1.5 |          0 |          0 |
|                                 1.5- 2.0 |          0 |          0 |
|                                 2.0- 2.5 |          0 |          0 |
|                                 2.5- 3.0 |          0 |          0 |
|                                 3.0- 3.5 |          0 |          0 |
|                                 3.5-+inf |          0 |          0 |
|------------------------------------------|------------|------------|
ActsConversionPrdAssociationAlg                                   INFO Prd Map statistics
|-----------------------|------------|
| N. Tracks             |          0 |
| N. Pixel Measurements |          0 |
| N. Strip Measurements |          0 |
| N. Hgtd Measurements  |          0 |
|-----------------------|------------|
ActsLowPtPixelClusterPreparationAlg                               INFO Data Prep statistics
|---------|------------|
| Inputs  |    1165578 |
| Outputs |    1062381 |
|---------|------------|
ActsLowPtStripClusterPreparationAlg                               INFO Data Prep statistics
|---------|------------|
| Inputs  |    1081478 |
| Outputs |    1040445 |
|---------|------------|
ActsLowPtPixelSpacePointPreparationAlg                            INFO Data Prep statistics
|---------|------------|
| Inputs  |    1165578 |
| Outputs |    1062381 |
|---------|------------|
ActsLowPtStripSpacePointPreparationAlg                            INFO Data Prep statistics
|---------|------------|
| Inputs  |     325456 |
| Outputs |     303048 |
|---------|------------|
ActsLowPtStripOverlapSpacePointPreparationAlg                     INFO Data Prep statistics
|---------|------------|
| Inputs  |     101370 |
| Outputs |      94389 |
|---------|------------|
ActsLowPtPixelSeedingAlg                                          INFO Seed statistics
|-------------|------------|
| Spacepoints |    1062381 |
| Seeds       |      46698 |
|-------------|------------|
ActsLowPtStripSeedingAlg                                          INFO Seed statistics
|-------------|------------|
| Spacepoints |     397437 |
| Seeds       |       9558 |
|-------------|------------|
ActsLowPtTrackFindingAlg                                          INFO statistics
|-----------------------------------|------------|------------|------------|
|                           All eta | PPP        | SSS        | ALL        |
|-----------------------------------|------------|------------|------------|
| Input seeds                       |      46698 |       9558 |      56256 |
| No track parameters               |          0 |          0 |          0 |
| Used   seeds                      |      45886 |       9191 |      55077 |
| Cannot find track                 |      44764 |       7450 |      52214 |
| Duplicate seeds                   |        812 |        367 |       1179 |
| Initial param estimation failed   |          0 |          0 |          0 |
| CKF tracks                        |       1122 |       1741 |       2863 |
| Rejected refined parameters       |          0 |          0 |          0 |
| selected tracks                   |        623 |         44 |        667 |
| Stopped tracks reaching max holes |      44309 |       7408 |      51717 |
| Seeds with more than one branch   |          0 |          0 |          0 |
| Tracks failing second CKF         |          0 |         69 |         69 |
| Stopped tracks below pT cut       |        455 |         42 |        497 |
| Stopped tracks above max eta      |          0 |          0 |          0 |
| Total shared hits                 |       3793 |        461 |       4254 |
|-----------------------------------|------------|------------|------------|
ActsLowPtTrackFindingAlg                                          INFO Ratios
|------------------------------------------|------------|------------|------------|
|                                          | PPP        | SSS        | ALL        |
|------------------------------------------|------------|------------|------------|
| failed / seeds                           |   0.958585 |   0.779452 |    0.92815 |
| duplication / seeds                      |  0.0173883 |  0.0383972 |  0.0209578 |
| Rejected refined params / seeds          |          0 |          0 |          0 |
| selected / CKF tracks                    |   0.555258 |  0.0252728 |   0.232972 |
| selected tracks / used seeds             |  0.0135771 | 0.00478729 |  0.0121103 |
| branched tracks / used seeds             |          0 |          0 |          0 |
| no 2nd CKF / CKF tracks                  |          0 |  0.0396324 |  0.0241006 |
| shared hits / CKF tracks                 |    3.38057 |    0.26479 |    1.48585 |
|------------------------------------------|------------|------------|------------|
| selected / CKF tracks           0.0- 0.5 |   0.825688 |          0 |   0.358566 |
|                                 0.5- 1.0 |   0.955556 |  0.0217391 |   0.390351 |
|                                 1.0- 1.5 |   0.957447 |  0.0769231 |     0.4613 |
|                                 1.5- 2.0 |    0.92236 |  0.0376812 |    0.31917 |
|                                 2.0- 2.5 |  0.0694444 | 0.00169779 | 0.00907716 |
|                                 2.5- 3.0 |  0.0175439 |          0 |  0.0175439 |
|                                 3.0- 3.5 |  0.0108696 |          0 |  0.0108696 |
|                                 3.5-+inf |  0.0735294 |          0 |  0.0735294 |
|------------------------------------------|------------|------------|------------|
ActsLowPtPrdAssociationAlg                                        INFO Prd Map statistics
|-----------------------|------------|
| N. Tracks             |        511 |
| N. Pixel Measurements |       3845 |
| N. Strip Measurements |       4245 |
| N. Hgtd Measurements  |          0 |
|-----------------------|------------|
